20161126154528
 AP MAC:5E-CF-7F-87-5E-C0
STA MAC:5C-CF-7F-87-5E-C0

20161126192230
 AP MAC:5E-CF-7F-87-5E-C0
STA MAC:5C-CF-7F-87-5E-C0

20161126192444
 AP MAC:5E-CF-7F-87-5E-C0
STA MAC:5C-CF-7F-87-5E-C0

20161126192815
 AP MAC:5E-CF-7F-87-5E-C0
STA MAC:5C-CF-7F-87-5E-C0

20161126192948
 AP MAC:5E-CF-7F-87-5E-C0
STA MAC:5C-CF-7F-87-5E-C0

20161126193510
 AP MAC:5E-CF-7F-87-5E-C0
STA MAC:5C-CF-7F-87-5E-C0

20161126193630
 AP MAC:5E-CF-7F-87-5E-C0
STA MAC:5C-CF-7F-87-5E-C0

20161126193637
 AP MAC:5E-CF-7F-87-5E-51
STA MAC:5C-CF-7F-87-5E-51

20161126193726
 AP MAC:5E-CF-7F-87-5E-C0
STA MAC:5C-CF-7F-87-5E-C0

20161126193822
 AP MAC:5E-CF-7F-87-5E-08
STA MAC:5C-CF-7F-87-5E-08

20161126194912
 AP MAC:5E-CF-7F-87-5E-C0
STA MAC:5C-CF-7F-87-5E-C0

20161126200301
 AP MAC:5E-CF-7F-87-5E-C0
STA MAC:5C-CF-7F-87-5E-C0

20161126200713
 AP MAC:5E-CF-7F-87-5E-C0
STA MAC:5C-CF-7F-87-5E-C0

20161126201704
 AP MAC:5E-CF-7F-87-5E-20
STA MAC:5C-CF-7F-87-5E-20

